%YAML 1.1
%TAG !u! tag:unity3d.com,2011:
--- !u!1 &100072
GameObject:
  m_ObjectHideFlags: 0
  m_CorrespondingSourceObject: {fileID: 0}
  m_PrefabInstance: {fileID: 0}
  m_PrefabAsset: {fileID: 0}
  serializedVersion: 6
  m_Component:
  - component: {fileID: 402742}
  m_Layer: 0
  m_Name: Left_Index
  m_TagString: Untagged
  m_Icon: {fileID: 0}
  m_NavMeshLayer: 0
  m_StaticEditorFlags: 0
  m_IsActive: 1
--- !u!4 &402742
Transform:
  m_ObjectHideFlags: 0
  m_CorrespondingSourceObject: {fileID: 0}
  m_PrefabInstance: {fileID: 0}
  m_PrefabAsset: {fileID: 0}
  m_GameObject: {fileID: 100072}
  m_LocalRotation: {x: 0.029490244, y: -0.027865784, z: 0.13795507, w: 0.98960716}
  m_LocalPosition: {x: 0.0000056028366, y: -6.6016564, z: -0.0000005364418}
  m_LocalScale: {x: 1, y: 1, z: 0.9999999}
  m_Children:
  - {fileID: 480226}
  m_Father: {fileID: 475984}
  m_RootOrder: 0
  m_LocalEulerAnglesHint: {x: 0, y: 0, z: 0}
--- !u!1 &101186
GameObject:
  m_ObjectHideFlags: 0
  m_CorrespondingSourceObject: {fileID: 0}
  m_PrefabInstance: {fileID: 0}
  m_PrefabAsset: {fileID: 0}
  serializedVersion: 6
  m_Component:
  - component: {fileID: 446730}
  m_Layer: 0
  m_Name: mummy_3
  m_TagString: Untagged
  m_Icon: {fileID: 0}
  m_NavMeshLayer: 0
  m_StaticEditorFlags: 0
  m_IsActive: 1
--- !u!4 &446730
Transform:
  m_ObjectHideFlags: 0
  m_CorrespondingSourceObject: {fileID: 0}
  m_PrefabInstance: {fileID: 0}
  m_PrefabAsset: {fileID: 0}
  m_GameObject: {fileID: 101186}
  m_LocalRotation: {x: 7.10349e-15, y: -0, z: -0, w: 1}
  m_LocalPosition: {x: 159.99998, y: 0, z: 0}
  m_LocalScale: {x: 1, y: 1, z: 1}
  m_Children: []
  m_Father: {fileID: 469436}
  m_RootOrder: 2
  m_LocalEulerAnglesHint: {x: 0, y: 0, z: 0}
--- !u!1 &101908
GameObject:
  m_ObjectHideFlags: 0
  m_CorrespondingSourceObject: {fileID: 0}
  m_PrefabInstance: {fileID: 0}
  m_PrefabAsset: {fileID: 0}
  serializedVersion: 6
  m_Component:
  - component: {fileID: 432484}
  m_Layer: 0
  m_Name: Spine_0
  m_TagString: Untagged
  m_Icon: {fileID: 0}
  m_NavMeshLayer: 0
  m_StaticEditorFlags: 0
  m_IsActive: 1
--- !u!4 &432484
Transform:
  m_ObjectHideFlags: 0
  m_CorrespondingSourceObject: {fileID: 0}
  m_PrefabInstance: {fileID: 0}
  m_PrefabAsset: {fileID: 0}
  m_GameObject: {fileID: 101908}
  m_LocalRotation: {x: 0.17720628, y: 0.97810566, z: -0.0033472835, w: -0.109069355}
  m_LocalPosition: {x: -0.0000065135314, y: -6.002412, z: 0.000000029918738}
  m_LocalScale: {x: 0.9999998, y: 0.9999997, z: 0.9999998}
  m_Children:
  - {fileID: 466780}
  m_Father: {fileID: 476952}
  m_RootOrder: 1
  m_LocalEulerAnglesHint: {x: 0, y: 0, z: 0}
--- !u!1 &102232
GameObject:
  m_ObjectHideFlags: 0
  m_CorrespondingSourceObject: {fileID: 0}
  m_PrefabInstance: {fileID: 0}
  m_PrefabAsset: {fileID: 0}
  serializedVersion: 6
  m_Component:
  - component: {fileID: 447924}
  m_Layer: 0
  m_Name: Right_Shoulder
  m_TagString: Untagged
  m_Icon: {fileID: 0}
  m_NavMeshLayer: 0
  m_StaticEditorFlags: 0
  m_IsActive: 1
--- !u!4 &447924
Transform:
  m_ObjectHideFlags: 0
  m_CorrespondingSourceObject: {fileID: 0}
  m_PrefabInstance: {fileID: 0}
  m_PrefabAsset: {fileID: 0}
  m_GameObject: {fileID: 102232}
  m_LocalRotation: {x: -0.29546884, y: -0.1085453, z: 0.60172683, w: 0.73405784}
  m_LocalPosition: {x: 0.0005688071, y: 10.06674, z: -0.0000641346}
  m_LocalScale: {x: 0.99999994, y: 0.99999994, z: 1}
  m_Children:
  - {fileID: 430346}
  m_Father: {fileID: 495992}
  m_RootOrder: 0
  m_LocalEulerAnglesHint: {x: 0, y: 0, z: 0}
--- !u!1 &105466
GameObject:
  m_ObjectHideFlags: 0
  m_CorrespondingSourceObject: {fileID: 0}
  m_PrefabInstance: {fileID: 0}
  m_PrefabAsset: {fileID: 0}
  serializedVersion: 6
  m_Component:
  - component: {fileID: 458424}
  m_Layer: 0
  m_Name: mummy_2
  m_TagString: Untagged
  m_Icon: {fileID: 0}
  m_NavMeshLayer: 0
  m_StaticEditorFlags: 0
  m_IsActive: 1
--- !u!4 &458424
Transform:
  m_ObjectHideFlags: 0
  m_CorrespondingSourceObject: {fileID: 0}
  m_PrefabInstance: {fileID: 0}
  m_PrefabAsset: {fileID: 0}
  m_GameObject: {fileID: 105466}
  m_LocalRotation: {x: 7.10349e-15, y: -0, z: -0, w: 1}
  m_LocalPosition: {x: -159.99998, y: 0, z: 0}
  m_LocalScale: {x: 1, y: 1, z: 1}
  m_Children: []
  m_Father: {fileID: 469436}
  m_RootOrder: 1
  m_LocalEulerAnglesHint: {x: 0, y: 0, z: 0}
--- !u!1 &105848
GameObject:
  m_ObjectHideFlags: 0
  m_CorrespondingSourceObject: {fileID: 0}
  m_PrefabInstance: {fileID: 0}
  m_PrefabAsset: {fileID: 0}
  serializedVersion: 6
  m_Component:
  - component: {fileID: 413010}
  m_Layer: 0
  m_Name: Left_Ball
  m_TagString: Untagged
  m_Icon: {fileID: 0}
  m_NavMeshLayer: 0
  m_StaticEditorFlags: 0
  m_IsActive: 1
--- !u!4 &413010
Transform:
  m_ObjectHideFlags: 0
  m_CorrespondingSourceObject: {fileID: 0}
  m_PrefabInstance: {fileID: 0}
  m_PrefabAsset: {fileID: 0}
  m_GameObject: {fileID: 105848}
  m_LocalRotation: {x: 0.02645033, y: 0.09605188, z: -0.20994037, w: 0.972625}
  m_LocalPosition: {x: 0.0000019669533, y: -13.485266, z: -0.0000026226044}
  m_LocalScale: {x: 1, y: 1, z: 1}
  m_Children:
  - {fileID: 442520}
  m_Father: {fileID: 423908}
  m_RootOrder: 0
  m_LocalEulerAnglesHint: {x: 0, y: 0, z: 0}
--- !u!1 &108314
GameObject:
  m_ObjectHideFlags: 0
  m_CorrespondingSourceObject: {fileID: 0}
  m_PrefabInstance: {fileID: 0}
  m_PrefabAsset: {fileID: 0}
  serializedVersion: 6
  m_Component:
  - component: {fileID: 424770}
  m_Layer: 0
  m_Name: Right_Thumb_0
  m_TagString: Untagged
  m_Icon: {fileID: 0}
  m_NavMeshLayer: 0
  m_StaticEditorFlags: 0
  m_IsActive: 1
--- !u!4 &424770
Transform:
  m_ObjectHideFlags: 0
  m_CorrespondingSourceObject: {fileID: 0}
  m_PrefabInstance: {fileID: 0}
  m_PrefabAsset: {fileID: 0}
  m_GameObject: {fileID: 108314}
  m_LocalRotation: {x: -0.22878425, y: 0.3776936, z: 0.3556794, w: 0.82370967}
  m_LocalPosition: {x: -1.7521586, y: 3.7447877, z: -5.490122}
  m_LocalScale: {x: 1.0000001, y: 0.9999999, z: 1.0000001}
  m_Children:
  - {fileID: 462680}
  m_Father: {fileID: 401168}
  m_RootOrder: 1
  m_LocalEulerAnglesHint: {x: 0, y: 0, z: 0}
--- !u!1 &108582
GameObject:
  m_ObjectHideFlags: 0
  m_CorrespondingSourceObject: {fileID: 0}
  m_PrefabInstance: {fileID: 0}
  m_PrefabAsset: {fileID: 0}
  serializedVersion: 6
  m_Component:
  - component: {fileID: 456202}
  m_Layer: 0
  m_Name: Left_Thumb_0
  m_TagString: Untagged
  m_Icon: {fileID: 0}
  m_NavMeshLayer: 0
  m_StaticEditorFlags: 0
  m_IsActive: 1
--- !u!4 &456202
Transform:
  m_ObjectHideFlags: 0
  m_CorrespondingSourceObject: {fileID: 0}
  m_PrefabInstance: {fileID: 0}
  m_PrefabAsset: {fileID: 0}
  m_GameObject: {fileID: 108582}
  m_LocalRotation: {x: -0.34200758, y: 0.27931434, z: 0.059406202, w: 0.89525706}
  m_LocalPosition: {x: 1.7522569, y: -3.7449365, z: 5.4901037}
  m_LocalScale: {x: 1, y: 1.0000001, z: 1}
  m_Children:
  - {fileID: 407786}
  m_Father: {fileID: 475984}
  m_RootOrder: 1
  m_LocalEulerAnglesHint: {x: 0, y: 0, z: 0}
--- !u!1 &114926
GameObject:
  m_ObjectHideFlags: 0
  m_CorrespondingSourceObject: {fileID: 0}
  m_PrefabInstance: {fileID: 0}
  m_PrefabAsset: {fileID: 0}
  serializedVersion: 6
  m_Component:
  - component: {fileID: 458256}
  m_Layer: 0
  m_Name: Neck_0
  m_TagString: Untagged
  m_Icon: {fileID: 0}
  m_NavMeshLayer: 0
  m_StaticEditorFlags: 0
  m_IsActive: 1
--- !u!4 &458256
Transform:
  m_ObjectHideFlags: 0
  m_CorrespondingSourceObject: {fileID: 0}
  m_PrefabInstance: {fileID: 0}
  m_PrefabAsset: {fileID: 0}
  m_GameObject: {fileID: 114926}
  m_LocalRotation: {x: -0.015907632, y: -0.049053207, z: 0.119393475, w: 0.99150693}
  m_LocalPosition: {x: -0.0000115297735, y: -9.320406, z: 0.0000004917383}
  m_LocalScale: {x: 1, y: 1.0000001, z: 1.0000002}
  m_Children:
  - {fileID: 426798}
  m_Father: {fileID: 468276}
  m_RootOrder: 1
  m_LocalEulerAnglesHint: {x: 0, y: 0, z: 0}
--- !u!1 &119720
GameObject:
  m_ObjectHideFlags: 0
  m_CorrespondingSourceObject: {fileID: 0}
  m_PrefabInstance: {fileID: 0}
  m_PrefabAsset: {fileID: 0}
  serializedVersion: 6
  m_Component:
  - component: {fileID: 466780}
  m_Layer: 0
  m_Name: Spine_1
  m_TagString: Untagged
  m_Icon: {fileID: 0}
  m_NavMeshLayer: 0
  m_StaticEditorFlags: 0
  m_IsActive: 1
--- !u!4 &466780
Transform:
  m_ObjectHideFlags: 0
  m_CorrespondingSourceObject: {fileID: 0}
  m_PrefabInstance: {fileID: 0}
  m_PrefabAsset: {fileID: 0}
  m_GameObject: {fileID: 119720}
  m_LocalRotation: {x: 0.003465067, y: 0.011946719, z: -0.03760435, w: 0.9992153}
  m_LocalPosition: {x: 0.0000037699938, y: -8.048809, z: 0.00000070275337}
  m_LocalScale: {x: 1.0000001, y: 0.9999998, z: 0.9999999}
  m_Children:
  - {fileID: 430988}
  m_Father: {fileID: 432484}
  m_RootOrder: 0
  m_LocalEulerAnglesHint: {x: 0, y: 0, z: 0}
--- !u!1 &123604
GameObject:
  m_ObjectHideFlags: 0
  m_CorrespondingSourceObject: {fileID: 0}
  m_PrefabInstance: {fileID: 0}
  m_PrefabAsset: {fileID: 0}
  serializedVersion: 6
  m_Component:
  - component: {fileID: 466784}
  m_Layer: 0
  m_Name: Left_Index_End
  m_TagString: Untagged
  m_Icon: {fileID: 0}
  m_NavMeshLayer: 0
  m_StaticEditorFlags: 0
  m_IsActive: 1
--- !u!4 &466784
Transform:
  m_ObjectHideFlags: 0
  m_CorrespondingSourceObject: {fileID: 0}
  m_PrefabInstance: {fileID: 0}
  m_PrefabAsset: {fileID: 0}
  m_GameObject: {fileID: 123604}
  m_LocalRotation: {x: 0.52809495, y: 0.11040173, z: 0.775565, w: -0.32775915}
  m_LocalPosition: {x: -0.0000038146973, y: -4.969576, z: -0.0000030994415}
  m_LocalScale: {x: 0.9999998, y: 0.9999998, z: 0.9999999}
  m_Children: []
  m_Father: {fileID: 480226}
  m_RootOrder: 0
  m_LocalEulerAnglesHint: {x: 0, y: 0, z: 0}
--- !u!1 &125100
GameObject:
  m_ObjectHideFlags: 0
  m_CorrespondingSourceObject: {fileID: 0}
  m_PrefabInstance: {fileID: 0}
  m_PrefabAsset: {fileID: 0}
  serializedVersion: 6
  m_Component:
  - component: {fileID: 426784}
  - component: {fileID: 13707536}
  m_Layer: 0
  m_Name: hat_shoulders_1
  m_TagString: Untagged
  m_Icon: {fileID: 0}
  m_NavMeshLayer: 0
  m_StaticEditorFlags: 0
  m_IsActive: 1
--- !u!4 &426784
Transform:
  m_ObjectHideFlags: 0
  m_CorrespondingSourceObject: {fileID: 0}
  m_PrefabInstance: {fileID: 0}
  m_PrefabAsset: {fileID: 0}
  m_GameObject: {fileID: 125100}
  m_LocalRotation: {x: 1.0655235e-14, y: 0, z: 0, w: 1}
  m_LocalPosition: {x: -0.0000048726797, y: 15.415025, z: -0.000000596046}
  m_LocalScale: {x: 1, y: 1, z: 1}
  m_Children: []
  m_Father: {fileID: 400982}
  m_RootOrder: 8
  m_LocalEulerAnglesHint: {x: 0, y: 0, z: 0}
--- !u!137 &13707536
SkinnedMeshRenderer:
  m_ObjectHideFlags: 0
  m_CorrespondingSourceObject: {fileID: 0}
  m_PrefabInstance: {fileID: 0}
  m_PrefabAsset: {fileID: 0}
  m_GameObject: {fileID: 125100}
  m_Enabled: 1
  m_CastShadows: 1
  m_ReceiveShadows: 1
  m_DynamicOccludee: 1
  m_MotionVectors: 1
  m_LightProbeUsage: 1
  m_ReflectionProbeUsage: 1
  m_RayTracingMode: 0
  m_RenderingLayerMask: 1
  m_RendererPriority: 0
  m_Materials:
  - {fileID: 2100000, guid: 39f6f304307ea8e4593b01c0e8792dcb, type: 2}
  m_StaticBatchInfo:
    firstSubMesh: 0
    subMeshCount: 0
  m_StaticBatchRoot: {fileID: 0}
  m_ProbeAnchor: {fileID: 0}
  m_LightProbeVolumeOverride: {fileID: 0}
  m_ScaleInLightmap: 1
  m_ReceiveGI: 1
  m_PreserveUVs: 0
  m_IgnoreNormalsForChartDetection: 0
  m_ImportantGI: 0
  m_StitchLightmapSeams: 1
  m_SelectedEditorRenderState: 3
  m_MinimumChartSize: 4
  m_AutoUVMaxDistance: 0.5
  m_AutoUVMaxAngle: 89
  m_LightmapParameters: {fileID: 0}
  m_SortingLayerID: 0
  m_SortingLayer: 0
  m_SortingOrder: 0
  serializedVersion: 2
  m_Quality: 0
  m_UpdateWhenOffscreen: 0
  m_SkinnedMotionVectors: 1
  m_Mesh: {fileID: 4300000, guid: ca8d8a5559861f1439ed63d88e6446f1, type: 3}
  m_Bones:
  - {fileID: 476952}
  - {fileID: 432484}
  - {fileID: 466780}
  - {fileID: 430988}
  - {fileID: 480562}
  - {fileID: 468276}
  - {fileID: 458256}
  - {fileID: 426798}
  - {fileID: 496876}
  - {fileID: 452374}
  - {fileID: 442240}
  - {fileID: 409798}
  - {fileID: 475984}
  - {fileID: 402742}
  - {fileID: 480226}
  - {fileID: 466784}
  - {fileID: 456202}
  - {fileID: 407786}
  - {fileID: 467762}
  - {fileID: 495992}
  - {fileID: 447924}
  - {fileID: 430346}
  - {fileID: 401168}
  - {fileID: 467532}
  - {fileID: 478006}
  - {fileID: 410504}
  - {fileID: 424770}
  - {fileID: 462680}
  - {fileID: 466046}
  - {fileID: 460970}
  - {fileID: 464870}
  - {fileID: 455446}
  - {fileID: 423908}
  - {fileID: 413010}
  - {fileID: 442520}
  - {fileID: 444836}
  - {fileID: 428864}
  - {fileID: 425544}
  - {fileID: 441480}
  - {fileID: 494764}
  m_BlendShapeWeights: []
  m_RootBone: {fileID: 476952}
  m_AABB:
    m_Center: {x: -3.2731285, y: -61.99507, z: -0.42477036}
    m_Extent: {x: 19.688225, y: 28.797567, z: 24.456245}
  m_DirtyAABB: 0
--- !u!1 &126972
GameObject:
  m_ObjectHideFlags: 0
  m_CorrespondingSourceObject: {fileID: 0}
  m_PrefabInstance: {fileID: 0}
  m_PrefabAsset: {fileID: 0}
  serializedVersion: 6
  m_Component:
  - component: {fileID: 476952}
  m_Layer: 0
  m_Name: Root
  m_TagString: Untagged
  m_Icon: {fileID: 0}
  m_NavMeshLayer: 0
  m_StaticEditorFlags: 0
  m_IsActive: 1
--- !u!4 &476952
Transform:
  m_ObjectHideFlags: 0
  m_CorrespondingSourceObject: {fileID: 0}
  m_PrefabInstance: {fileID: 0}
  m_PrefabAsset: {fileID: 0}
  m_GameObject: {fileID: 126972}
  m_LocalRotation: {x: 0.70696425, y: -0.053352624, z: 0.7032024, w: -0.053492233}
  m_LocalPosition: {x: -0.000000001061762, y: 96.96331, z: -0.0000021159674}
  m_LocalScale: {x: 1.0000001, y: 1, z: 0.9999999}
  m_Children:
  - {fileID: 460970}
  - {fileID: 432484}
  m_Father: {fileID: 489616}
  m_RootOrder: 0
  m_LocalEulerAnglesHint: {x: 0, y: 0, z: 0}
--- !u!1 &128576
GameObject:
  m_ObjectHideFlags: 0
  m_CorrespondingSourceObject: {fileID: 0}
  m_PrefabInstance: {fileID: 0}
  m_PrefabAsset: {fileID: 0}
  serializedVersion: 6
  m_Component:
  - component: {fileID: 491722}
  - component: {fileID: 13766708}
  m_Layer: 0
  m_Name: shoulders_hat_4
  m_TagString: Untagged
  m_Icon: {fileID: 0}
  m_NavMeshLayer: 0
  m_StaticEditorFlags: 0
  m_IsActive: 0
--- !u!4 &491722
Transform:
  m_ObjectHideFlags: 0
  m_CorrespondingSourceObject: {fileID: 0}
  m_PrefabInstance: {fileID: 0}
  m_PrefabAsset: {fileID: 0}
  m_GameObject: {fileID: 128576}
  m_LocalRotation: {x: 1.420698e-14, y: 2.6179939e-17, z: -2.1816616e-16, w: 1}
  m_LocalPosition: {x: 159.99998, y: -0.0000033378597, z: 0.00000028312203}
  m_LocalScale: {x: 0.9999999, y: 1.0000001, z: 1.0000001}
  m_Children: []
  m_Father: {fileID: 400982}
  m_RootOrder: 11
  m_LocalEulerAnglesHint: {x: 0, y: 0, z: 0}
--- !u!137 &13766708
SkinnedMeshRenderer:
  m_ObjectHideFlags: 0
  m_CorrespondingSourceObject: {fileID: 0}
  m_PrefabInstance: {fileID: 0}
  m_PrefabAsset: {fileID: 0}
  m_GameObject: {fileID: 128576}
  m_Enabled: 1
  m_CastShadows: 1
  m_ReceiveShadows: 1
  m_DynamicOccludee: 1
  m_MotionVectors: 1
  m_LightProbeUsage: 1
  m_ReflectionProbeUsage: 1
  m_RayTracingMode: 0
  m_RenderingLayerMask: 1
  m_RendererPriority: 0
  m_Materials:
  - {fileID: 2100000, guid: 3672b00696334b343b4e605c8bf3c630, type: 2}
  m_StaticBatchInfo:
    firstSubMesh: 0
    subMeshCount: 0
  m_StaticBatchRoot: {fileID: 0}
  m_ProbeAnchor: {fileID: 0}
  m_LightProbeVolumeOverride: {fileID: 0}
  m_ScaleInLightmap: 1
  m_ReceiveGI: 1
  m_PreserveUVs: 0
  m_IgnoreNormalsForChartDetection: 0
  m_ImportantGI: 0
  m_StitchLightmapSeams: 1
  m_SelectedEditorRenderState: 3
  m_MinimumChartSize: 4
  m_AutoUVMaxDistance: 0.5
  m_AutoUVMaxAngle: 89
  m_LightmapParameters: {fileID: 0}
  m_SortingLayerID: 0
  m_SortingLayer: 0
  m_SortingOrder: 0
  serializedVersion: 2
  m_Quality: 0
  m_UpdateWhenOffscreen: 0
  m_SkinnedMotionVectors: 1
  m_Mesh: {fileID: 4300006, guid: ca8d8a5559861f1439ed63d88e6446f1, type: 3}
  m_Bones:
  - {fileID: 476952}
  - {fileID: 432484}
  - {fileID: 466780}
  - {fileID: 430988}
  - {fileID: 480562}
  - {fileID: 468276}
  - {fileID: 458256}
  - {fileID: 426798}
  - {fileID: 496876}
  - {fileID: 452374}
  - {fileID: 442240}
  - {fileID: 409798}
  - {fileID: 475984}
  - {fileID: 402742}
  - {fileID: 480226}
  - {fileID: 466784}
  - {fileID: 456202}
  - {fileID: 407786}
  - {fileID: 467762}
  - {fileID: 495992}
  - {fileID: 447924}
  - {fileID: 430346}
  - {fileID: 401168}
  - {fileID: 467532}
  - {fileID: 478006}
  - {fileID: 410504}
  - {fileID: 424770}
  - {fileID: 462680}
  - {fileID: 466046}
  - {fileID: 460970}
  - {fileID: 464870}
  - {fileID: 455446}
  - {fileID: 423908}
  - {fileID: 413010}
  - {fileID: 442520}
  - {fileID: 444836}
  - {fileID: 428864}
  - {fileID: 425544}
  - {fileID: 441480}
  - {fileID: 494764}
  m_BlendShapeWeights: []
  m_RootBone: {fileID: 476952}
  m_AABB:
    m_Center: {x: -5.8882084, y: -60.94108, z: -0.98584557}
    m_Extent: {x: 19.03088, y: 23.286072, z: 27.10081}
  m_DirtyAABB: 0
--- !u!1 &128976
GameObject:
  m_ObjectHideFlags: 0
  m_CorrespondingSourceObject: {fileID: 0}
  m_PrefabInstance: {fileID: 0}
  m_PrefabAsset: {fileID: 0}
  serializedVersion: 6
  m_Component:
  - component: {fileID: 444836}
  m_Layer: 0
  m_Name: Right_Leg
  m_TagString: Untagged
  m_Icon: {fileID: 0}
  m_NavMeshLayer: 0
  m_StaticEditorFlags: 0
  m_IsActive: 1
--- !u!4 &444836
Transform:
  m_ObjectHideFlags: 0
  m_CorrespondingSourceObject: {fileID: 0}
  m_PrefabInstance: {fileID: 0}
  m_PrefabAsset: {fileID: 0}
  m_GameObject: {fileID: 128976}
  m_LocalRotation: {x: -0.63269293, y: -0.086556815, z: 0.0058399243, w: 0.7695281}
  m_LocalPosition: {x: 0.9818934, y: 11.468592, z: 4.3058033}
  m_LocalScale: {x: 1.0000001, y: 0.99999994, z: 1.0000002}
  m_Children:
  - {fileID: 428864}
  m_Father: {fileID: 460970}
  m_RootOrder: 1
  m_LocalEulerAnglesHint: {x: 0, y: 0, z: 0}
--- !u!1 &131684
GameObject:
  m_ObjectHideFlags: 0
  m_CorrespondingSourceObject: {fileID: 0}
  m_PrefabInstance: {fileID: 0}
  m_PrefabAsset: {fileID: 0}
  serializedVersion: 6
  m_Component:
  - component: {fileID: 442240}
  m_Layer: 0
  m_Name: Left_Shoulder
  m_TagString: Untagged
  m_Icon: {fileID: 0}
  m_NavMeshLayer: 0
  m_StaticEditorFlags: 0
  m_IsActive: 1
--- !u!4 &442240
Transform:
  m_ObjectHideFlags: 0
  m_CorrespondingSourceObject: {fileID: 0}
  m_PrefabInstance: {fileID: 0}
  m_PrefabAsset: {fileID: 0}
  m_GameObject: {fileID: 131684}
  m_LocalRotation: {x: 0.043526735, y: -0.123267025, z: 0.60785145, w: 0.783216}
  m_LocalPosition: {x: -0.000012695789, y: -10.068282, z: 0}
  m_LocalScale: {x: 0.9999997, y: 0.9999998, z: 0.9999998}
  m_Children:
  - {fileID: 409798}
  m_Father: {fileID: 452374}
  m_RootOrder: 0
  m_LocalEulerAnglesHint: {x: 0, y: 0, z: 0}
--- !u!1 &134038
GameObject:
  m_ObjectHideFlags: 0
  m_CorrespondingSourceObject: {fileID: 0}
  m_PrefabInstance: {fileID: 0}
  m_PrefabAsset: {fileID: 0}
  serializedVersion: 6
  m_Component:
  - component: {fileID: 413772}
  m_Layer: 0
  m_Name: mummy_1
  m_TagString: Untagged
  m_Icon: {fileID: 0}
  m_NavMeshLayer: 0
  m_StaticEditorFlags: 0
  m_IsActive: 1
--- !u!4 &413772
Transform:
  m_ObjectHideFlags: 0
  m_CorrespondingSourceObject: {fileID: 0}
  m_PrefabInstance: {fileID: 0}
  m_PrefabAsset: {fileID: 0}
  m_GameObject: {fileID: 134038}
  m_LocalRotation: {x: 7.10349e-15, y: -0, z: -0, w: 1}
  m_LocalPosition: {x: -0, y: 15.415023, z: 4.55e-13}
  m_LocalScale: {x: 1, y: 1, z: 1}
  m_Children: []
  m_Father: {fileID: 469436}
  m_RootOrder: 0
  m_LocalEulerAnglesHint: {x: 0, y: 0, z: 0}
--- !u!1 &135934
GameObject:
  m_ObjectHideFlags: 0
  m_CorrespondingSourceObject: {fileID: 0}
  m_PrefabInstance: {fileID: 0}
  m_PrefabAsset: {fileID: 0}
  serializedVersion: 6
  m_Component:
  - component: {fileID: 430346}
  m_Layer: 0
  m_Name: Right_Elbow
  m_TagString: Untagged
  m_Icon: {fileID: 0}
  m_NavMeshLayer: 0
  m_StaticEditorFlags: 0
  m_IsActive: 1
--- !u!4 &430346
Transform:
  m_ObjectHideFlags: 0
  m_CorrespondingSourceObject: {fileID: 0}
  m_PrefabInstance: {fileID: 0}
  m_PrefabAsset: {fileID: 0}
  m_GameObject: {fileID: 135934}
  m_LocalRotation: {x: -0.30710965, y: 0.04814385, z: -0.07275805, w: 0.94766665}
  m_LocalPosition: {x: 0.0010385513, y: 32.762226, z: -0.0000076293945}
  m_LocalScale: {x: 1, y: 0.99999976, z: 0.9999998}
  m_Children:
  - {fileID: 401168}
  m_Father: {fileID: 447924}
  m_RootOrder: 0
  m_LocalEulerAnglesHint: {x: 0, y: 0, z: 0}
--- !u!1 &136418
GameObject:
  m_ObjectHideFlags: 0
  m_CorrespondingSourceObject: {fileID: 0}
  m_PrefabInstance: {fileID: 0}
  m_PrefabAsset: {fileID: 0}
  serializedVersion: 6
  m_Component:
  - component: {fileID: 411216}
  - component: {fileID: 13764758}
  m_Layer: 0
  m_Name: dress_1
  m_TagString: Untagged
  m_Icon: {fileID: 0}
  m_NavMeshLayer: 0
  m_StaticEditorFlags: 0
  m_IsActive: 1
--- !u!4 &411216
Transform:
  m_ObjectHideFlags: 0
  m_CorrespondingSourceObject: {fileID: 0}
  m_PrefabInstance: {fileID: 0}
  m_PrefabAsset: {fileID: 0}
  m_GameObject: {fileID: 136418}
  m_LocalRotation: {x: 7.10349e-15, y: 0, z: 0, w: 1}
  m_LocalPosition: {x: -2.1e-14, y: 15.415025, z: 0.0000002384188}
  m_LocalScale: {x: 0.9999999, y: 1, z: 1}
  m_Children: []
  m_Father: {fileID: 400982}
  m_RootOrder: 3
  m_LocalEulerAnglesHint: {x: 0, y: 0, z: 0}
--- !u!137 &13764758
SkinnedMeshRenderer:
  m_ObjectHideFlags: 0
  m_CorrespondingSourceObject: {fileID: 0}
  m_PrefabInstance: {fileID: 0}
  m_PrefabAsset: {fileID: 0}
  m_GameObject: {fileID: 136418}
  m_Enabled: 1
  m_CastShadows: 1
  m_ReceiveShadows: 1
  m_DynamicOccludee: 1
  m_MotionVectors: 1
  m_LightProbeUsage: 1
  m_ReflectionProbeUsage: 1
  m_RayTracingMode: 0
  m_RenderingLayerMask: 1
  m_RendererPriority: 0
  m_Materials:
  - {fileID: 2100000, guid: 11a9cb42d959584439a20557c71908bc, type: 2}
  m_StaticBatchInfo:
    firstSubMesh: 0
    subMeshCount: 0
  m_StaticBatchRoot: {fileID: 0}
  m_ProbeAnchor: {fileID: 0}
  m_LightProbeVolumeOverride: {fileID: 0}
  m_ScaleInLightmap: 1
  m_ReceiveGI: 1
  m_PreserveUVs: 0
  m_IgnoreNormalsForChartDetection: 0
  m_ImportantGI: 0
  m_StitchLightmapSeams: 1
  m_SelectedEditorRenderState: 3
  m_MinimumChartSize: 4
  m_AutoUVMaxDistance: 0.5
  m_AutoUVMaxAngle: 89
  m_LightmapParameters: {fileID: 0}
  m_SortingLayerID: 0
  m_SortingLayer: 0
  m_SortingOrder: 0
  serializedVersion: 2
  m_Quality: 0
  m_UpdateWhenOffscreen: 0
  m_SkinnedMotionVectors: 1
  m_Mesh: {fileID: 4300014, guid: ca8d8a5559861f1439ed63d88e6446f1, type: 3}
  m_Bones:
  - {fileID: 476952}
  - {fileID: 432484}
  - {fileID: 466780}
  - {fileID: 430988}
  - {fileID: 480562}
  - {fileID: 468276}
  - {fileID: 458256}
  - {fileID: 426798}
  - {fileID: 496876}
  - {fileID: 452374}
  - {fileID: 442240}
  - {fileID: 409798}
  - {fileID: 475984}
  - {fileID: 402742}
  - {fileID: 480226}
  - {fileID: 466784}
  - {fileID: 456202}
  - {fileID: 407786}
  - {fileID: 467762}
  - {fileID: 495992}
  - {fileID: 447924}
  - {fileID: 430346}
  - {fileID: 401168}
  - {fileID: 467532}
  - {fileID: 478006}
  - {fileID: 410504}
  - {fileID: 424770}
  - {fileID: 462680}
  - {fileID: 466046}
  - {fileID: 460970}
  - {fileID: 464870}
  - {fileID: 455446}
  - {fileID: 423908}
  - {fileID: 413010}
  - {fileID: 442520}
  - {fileID: 444836}
  - {fileID: 428864}
  - {fileID: 425544}
  - {fileID: 441480}
  - {fileID: 494764}
  m_BlendShapeWeights: []
  m_RootBone: {fileID: 476952}
  m_AABB:
    m_Center: {x: 2.7702131, y: 16.528904, z: -1.9769077}
    m_Extent: {x: 30.40049, y: 32.418648, z: 28.72072}
  m_DirtyAABB: 0
--- !u!1 &137056
GameObject:
  m_ObjectHideFlags: 0
  m_CorrespondingSourceObject: {fileID: 0}
  m_PrefabInstance: {fileID: 0}
  m_PrefabAsset: {fileID: 0}
  serializedVersion: 6
  m_Component:
  - component: {fileID: 460970}
  m_Layer: 0
  m_Name: Hip
  m_TagString: Untagged
  m_Icon: {fileID: 0}
  m_NavMeshLayer: 0
  m_StaticEditorFlags: 0
  m_IsActive: 1
--- !u!4 &460970
Transform:
  m_ObjectHideFlags: 0
  m_CorrespondingSourceObject: {fileID: 0}
  m_PrefabInstance: {fileID: 0}
  m_PrefabAsset: {fileID: 0}
  m_GameObject: {fileID: 137056}
  m_LocalRotation: {x: 0.027606718, y: 0.6404262, z: 0.7675183, w: -0.0027903165}
  m_LocalPosition: {x: 0.23107013, y: 3.9020085, z: -0.067490675}
  m_LocalScale: {x: 0.9999997, y: 0.99997616, z: 0.99994785}
  m_Children:
  - {fileID: 464870}
  - {fileID: 444836}
  m_Father: {fileID: 476952}
  m_RootOrder: 0
  m_LocalEulerAnglesHint: {x: 0, y: 0, z: 0}
--- !u!1 &139600
GameObject:
  m_ObjectHideFlags: 0
  m_CorrespondingSourceObject: {fileID: 0}
  m_PrefabInstance: {fileID: 0}
  m_PrefabAsset: {fileID: 0}
  serializedVersion: 6
  m_Component:
  - component: {fileID: 455520}
  m_Layer: 0
  m_Name: Lamp
  m_TagString: Untagged
  m_Icon: {fileID: 0}
  m_NavMeshLayer: 0
  m_StaticEditorFlags: 0
  m_IsActive: 1
--- !u!4 &455520
Transform:
  m_ObjectHideFlags: 0
  m_CorrespondingSourceObject: {fileID: 0}
  m_PrefabInstance: {fileID: 0}
  m_PrefabAsset: {fileID: 0}
  m_GameObject: {fileID: 139600}
  m_LocalRotation: {x: 0.16907574, y: -0.75588036, z: 0.27217138, w: 0.5709475}
  m_LocalPosition: {x: -4.0762453, y: 5.903862, z: -1.005454}
  m_LocalScale: {x: 1, y: 0.99999994, z: 0.99999994}
  m_Children: []
  m_Father: {fileID: 400982}
  m_RootOrder: 10
  m_LocalEulerAnglesHint: {x: 0, y: 0, z: 0}
--- !u!1 &139618
GameObject:
  m_ObjectHideFlags: 0
  m_CorrespondingSourceObject: {fileID: 0}
  m_PrefabInstance: {fileID: 0}
  m_PrefabAsset: {fileID: 0}
  serializedVersion: 6
  m_Component:
  - component: {fileID: 426798}
  m_Layer: 0
  m_Name: Neck_1
  m_TagString: Untagged
  m_Icon: {fileID: 0}
  m_NavMeshLayer: 0
  m_StaticEditorFlags: 0
  m_IsActive: 1
--- !u!4 &426798
Transform:
  m_ObjectHideFlags: 0
  m_CorrespondingSourceObject: {fileID: 0}
  m_PrefabInstance: {fileID: 0}
  m_PrefabAsset: {fileID: 0}
  m_GameObject: {fileID: 139618}
  m_LocalRotation: {x: 0.021413134, y: 0.075077295, z: -0.1544941, w: 0.9849043}
  m_LocalPosition: {x: 0.000006303191, y: -11.23633, z: -0.000000059604645}
  m_LocalScale: {x: 0.9999997, y: 0.99999976, z: 0.99999976}
  m_Children:
  - {fileID: 496876}
  m_Father: {fileID: 458256}
  m_RootOrder: 0
  m_LocalEulerAnglesHint: {x: 0, y: 0, z: 0}
--- !u!1 &139692
GameObject:
  m_ObjectHideFlags: 0
  m_CorrespondingSourceObject: {fileID: 0}
  m_PrefabInstance: {fileID: 0}
  m_PrefabAsset: {fileID: 0}
  serializedVersion: 6
  m_Component:
  - component: {fileID: 495992}
  m_Layer: 0
  m_Name: Right_Clavicle
  m_TagString: Untagged
  m_Icon: {fileID: 0}
  m_NavMeshLayer: 0
  m_StaticEditorFlags: 0
  m_IsActive: 1
--- !u!4 &495992
Transform:
  m_ObjectHideFlags: 0
  m_CorrespondingSourceObject: {fileID: 0}
  m_PrefabInstance: {fileID: 0}
  m_PrefabAsset: {fileID: 0}
  m_GameObject: {fileID: 139692}
  m_LocalRotation: {x: -0.4463495, y: 0.55686355, z: 0.535143, w: -0.45199233}
  m_LocalPosition: {x: 0.67924845, y: -1.9219503, z: 9.665307}
  m_LocalScale: {x: 1.0000002, y: 1.0000002, z: 1.0000002}
  m_Children:
  - {fileID: 447924}
  m_Father: {fileID: 468276}
  m_RootOrder: 2
  m_LocalEulerAnglesHint: {x: 0, y: 0, z: 0}
--- !u!1 &141304
GameObject:
  m_ObjectHideFlags: 0
  m_CorrespondingSourceObject: {fileID: 0}
  m_PrefabInstance: {fileID: 0}
  m_PrefabAsset: {fileID: 0}
  serializedVersion: 6
  m_Component:
  - component: {fileID: 428864}
  m_Layer: 0
  m_Name: Right_Knee
  m_TagString: Untagged
  m_Icon: {fileID: 0}
  m_NavMeshLayer: 0
  m_StaticEditorFlags: 0
  m_IsActive: 1
--- !u!4 &428864
Transform:
  m_ObjectHideFlags: 0
  m_CorrespondingSourceObject: {fileID: 0}
  m_PrefabInstance: {fileID: 0}
  m_PrefabAsset: {fileID: 0}
  m_GameObject: {fileID: 141304}
  m_LocalRotation: {x: 0.05755696, y: 0.0065890555, z: 0.31551835, w: 0.9471494}
  m_LocalPosition: {x: 0.0000013113022, y: -42.966484, z: 0.00000166893}
  m_LocalScale: {x: 0.9999998, y: 1, z: 0.9999999}
  m_Children:
  - {fileID: 425544}
  m_Father: {fileID: 444836}
  m_RootOrder: 0
  m_LocalEulerAnglesHint: {x: 0, y: 0, z: 0}
--- !u!1 &141852
GameObject:
  m_ObjectHideFlags: 0
  m_CorrespondingSourceObject: {fileID: 0}
  m_PrefabInstance: {fileID: 0}
  m_PrefabAsset: {fileID: 0}
  serializedVersion: 6
  m_Component:
  - component: {fileID: 467532}
  m_Layer: 0
  m_Name: Right_Index
  m_TagString: Untagged
  m_Icon: {fileID: 0}
  m_NavMeshLayer: 0
  m_StaticEditorFlags: 0
  m_IsActive: 1
--- !u!4 &467532
Transform:
  m_ObjectHideFlags: 0
  m_CorrespondingSourceObject: {fileID: 0}
  m_PrefabInstance: {fileID: 0}
  m_PrefabAsset: {fileID: 0}
  m_GameObject: {fileID: 141852}
  m_LocalRotation: {x: 0.019323895, y: -0.03567584, z: 0.4398285, w: 0.8971648}
  m_LocalPosition: {x: 0.000102996826, y: 6.6015606, z: 0.0000021457672}
  m_LocalScale: {x: 0.99999994, y: 0.9999999, z: 1.0000001}
  m_Children:
  - {fileID: 478006}
  m_Father: {fileID: 401168}
  m_RootOrder: 0
  m_LocalEulerAnglesHint: {x: 0, y: 0, z: 0}
--- !u!1 &143028
GameObject:
  m_ObjectHideFlags: 0
  m_CorrespondingSourceObject: {fileID: 0}
  m_PrefabInstance: {fileID: 0}
  m_PrefabAsset: {fileID: 0}
  serializedVersion: 6
  m_Component:
  - component: {fileID: 400982}
  - component: {fileID: 9548402}
  m_Layer: 0
  m_Name: Mummy_1
  m_TagString: Untagged
  m_Icon: {fileID: 0}
  m_NavMeshLayer: 0
  m_StaticEditorFlags: 0
  m_IsActive: 1
--- !u!4 &400982
Transform:
  m_ObjectHideFlags: 0
  m_CorrespondingSourceObject: {fileID: 0}
  m_PrefabInstance: {fileID: 0}
  m_PrefabAsset: {fileID: 0}
  m_GameObject: {fileID: 143028}
  m_LocalRotation: {x: 0, y: 0, z: 0, w: 1}
  m_LocalPosition: {x: -2.309, y: -0.496, z: 0.881}
  m_LocalScale: {x: 1, y: 1, z: 1}
  m_Children:
  - {fileID: 489616}
  - {fileID: 414738}
  - {fileID: 460070}
  - {fileID: 411216}
  - {fileID: 486880}
  - {fileID: 407804}
  - {fileID: 413188}
  - {fileID: 469436}
  - {fileID: 426784}
  - {fileID: 423302}
  - {fileID: 455520}
  - {fileID: 491722}
  m_Father: {fileID: 0}
  m_RootOrder: 0
  m_LocalEulerAnglesHint: {x: 0, y: 0, z: 0}
--- !u!95 &9548402
Animator:
  serializedVersion: 3
  m_ObjectHideFlags: 0
  m_CorrespondingSourceObject: {fileID: 0}
  m_PrefabInstance: {fileID: 0}
  m_PrefabAsset: {fileID: 0}
  m_GameObject: {fileID: 143028}
  m_Enabled: 1
  m_Avatar: {fileID: 9000000, guid: ca8d8a5559861f1439ed63d88e6446f1, type: 3}
  m_Controller: {fileID: 9100000, guid: bcaf1ebb76c37444b8f3dd9ebfbca91b, type: 2}
  m_CullingMode: 1
  m_UpdateMode: 0
  m_ApplyRootMotion: 0
  m_LinearVelocityBlending: 0
  m_WarningMessage: 
  m_HasTransformHierarchy: 1
  m_AllowConstantClipSamplingOptimization: 1
  m_KeepAnimatorControllerStateOnDisable: 0
--- !u!1 &143218
GameObject:
  m_ObjectHideFlags: 0
  m_CorrespondingSourceObject: {fileID: 0}
  m_PrefabInstance: {fileID: 0}
  m_PrefabAsset: {fileID: 0}
  serializedVersion: 6
  m_Component:
  - component: {fileID: 464870}
  m_Layer: 0
  m_Name: Left_Leg
  m_TagString: Untagged
  m_Icon: {fileID: 0}
  m_NavMeshLayer: 0
  m_StaticEditorFlags: 0
  m_IsActive: 1
--- !u!4 &464870
Transform:
  m_ObjectHideFlags: 0
  m_CorrespondingSourceObject: {fileID: 0}
  m_PrefabInstance: {fileID: 0}
  m_PrefabAsset: {fileID: 0}
  m_GameObject: {fileID: 143218}
  m_LocalRotation: {x: -0.60811263, y: -0.060768165, z: -0.28166297, w: 0.73971087}
  m_LocalPosition: {x: 0.000000834465, y: -12.289505, z: -0.000007748604}
  m_LocalScale: {x: 1, y: 1, z: 0.9999998}
  m_Children:
  - {fileID: 455446}
  m_Father: {fileID: 460970}
  m_RootOrder: 0
  m_LocalEulerAnglesHint: {x: 0, y: 0, z: 0}
--- !u!1 &145616
GameObject:
  m_ObjectHideFlags: 0
  m_CorrespondingSourceObject: {fileID: 0}
  m_PrefabInstance: {fileID: 0}
  m_PrefabAsset: {fileID: 0}
  serializedVersion: 6
  m_Component:
  - component: {fileID: 441480}
  m_Layer: 0
  m_Name: Right_Ball
  m_TagString: Untagged
  m_Icon: {fileID: 0}
  m_NavMeshLayer: 0
  m_StaticEditorFlags: 0
  m_IsActive: 1
--- !u!4 &441480
Transform:
  m_ObjectHideFlags: 0
  m_CorrespondingSourceObject: {fileID: 0}
  m_PrefabInstance: {fileID: 0}
  m_PrefabAsset: {fileID: 0}
  m_GameObject: {fileID: 145616}
  m_LocalRotation: {x: -0.035962723, y: -0.09117843, z: -0.402172, w: 0.91030264}
  m_LocalPosition: {x: 0.0000018626451, y: -13.48523, z: 0.000003395602}
  m_LocalScale: {x: 1.0000001, y: 1.0000001, z: 1.0000002}
  m_Children:
  - {fileID: 494764}
  m_Father: {fileID: 425544}
  m_RootOrder: 0
  m_LocalEulerAnglesHint: {x: 0, y: 0, z: 0}
--- !u!1 &145654
GameObject:
  m_ObjectHideFlags: 0
  m_CorrespondingSourceObject: {fileID: 0}
  m_PrefabInstance: {fileID: 0}
  m_PrefabAsset: {fileID: 0}
  serializedVersion: 6
  m_Component:
  - component: {fileID: 480562}
  m_Layer: 0
  m_Name: Spine_3
  m_TagString: Untagged
  m_Icon: {fileID: 0}
  m_NavMeshLayer: 0
  m_StaticEditorFlags: 0
  m_IsActive: 1
--- !u!4 &480562
Transform:
  m_ObjectHideFlags: 0
  m_CorrespondingSourceObject: {fileID: 0}
  m_PrefabInstance: {fileID: 0}
  m_PrefabAsset: {fileID: 0}
  m_GameObject: {fileID: 145654}
  m_LocalRotation: {x: 0.0014537672, y: 0.008290946, z: -0.074310645, w: 0.9971996}
  m_LocalPosition: {x: 0.000007033348, y: -11.491926, z: -0.00000014901161}
  m_LocalScale: {x: 0.9999998, y: 1.0000001, z: 1.0000001}
  m_Children:
  - {fileID: 468276}
  m_Father: {fileID: 430988}
  m_RootOrder: 0
  m_LocalEulerAnglesHint: {x: 0, y: 0, z: 0}
--- !u!1 &147052
GameObject:
  m_ObjectHideFlags: 0
  m_CorrespondingSourceObject: {fileID: 0}
  m_PrefabInstance: {fileID: 0}
  m_PrefabAsset: {fileID: 0}
  serializedVersion: 6
  m_Component:
  - component: {fileID: 489616}
  m_Layer: 0
  m_Name: Armature
  m_TagString: Untagged
  m_Icon: {fileID: 0}
  m_NavMeshLayer: 0
  m_StaticEditorFlags: 0
  m_IsActive: 1
--- !u!4 &489616
Transform:
  m_ObjectHideFlags: 0
  m_CorrespondingSourceObject: {fileID: 0}
  m_PrefabInstance: {fileID: 0}
  m_PrefabAsset: {fileID: 0}
  m_GameObject: {fileID: 147052}
  m_LocalRotation: {x: 0.000000081460335, y: -0, z: 0, w: 1}
  m_LocalPosition: {x: 0, y: 0, z: 0}
  m_LocalScale: {x: 0.01, y: 0.01, z: 0.01}
  m_Children:
  - {fileID: 476952}
  m_Father: {fileID: 400982}
  m_RootOrder: 0
  m_LocalEulerAnglesHint: {x: 0, y: 0, z: 0}
--- !u!1 &147478
GameObject:
  m_ObjectHideFlags: 0
  m_CorrespondingSourceObject: {fileID: 0}
  m_PrefabInstance: {fileID: 0}
  m_PrefabAsset: {fileID: 0}
  serializedVersion: 6
  m_Component:
  - component: {fileID: 460070}
  m_Layer: 0
  m_Name: Camera
  m_TagString: Untagged
  m_Icon: {fileID: 0}
  m_NavMeshLayer: 0
  m_StaticEditorFlags: 0
  m_IsActive: 1
--- !u!4 &460070
Transform:
  m_ObjectHideFlags: 0
  m_CorrespondingSourceObject: {fileID: 0}
  m_PrefabInstance: {fileID: 0}
  m_PrefabAsset: {fileID: 0}
  m_GameObject: {fileID: 147478}
  m_LocalRotation: {x: 0.21061136, y: 0.9052401, z: -0.089281686, w: -0.35806695}
  m_LocalPosition: {x: -7.4811316, y: 5.343665, z: 6.50764}
  m_LocalScale: {x: 1, y: 0.99999994, z: 1}
  m_Children: []
  m_Father: {fileID: 400982}
  m_RootOrder: 2
  m_LocalEulerAnglesHint: {x: 0, y: 0, z: 0}
--- !u!1 &149076
GameObject:
  m_ObjectHideFlags: 0
  m_CorrespondingSourceObject: {fileID: 0}
  m_PrefabInstance: {fileID: 0}
  m_PrefabAsset: {fileID: 0}
  serializedVersion: 6
  m_Component:
  - component: {fileID: 410504}
  m_Layer: 0
  m_Name: Right_Index_End
  m_TagString: Untagged
  m_Icon: {fileID: 0}
  m_NavMeshLayer: 0
  m_StaticEditorFlags: 0
  m_IsActive: 1
--- !u!4 &410504
Transform:
  m_ObjectHideFlags: 0
  m_CorrespondingSourceObject: {fileID: 0}
  m_PrefabInstance: {fileID: 0}
  m_PrefabAsset: {fileID: 0}
  m_GameObject: {fileID: 149076}
  m_LocalRotation: {x: 0.5280843, y: 0.11042678, z: 0.77556133, w: -0.32777667}
  m_LocalPosition: {x: -0.0000359416, y: 4.969733, z: 0.000014066696}
  m_LocalScale: {x: 0.9999997, y: 0.9999999, z: 0.99999976}
  m_Children: []
  m_Father: {fileID: 478006}
  m_RootOrder: 0
  m_LocalEulerAnglesHint: {x: 0, y: 0, z: 0}
--- !u!1 &150152
GameObject:
  m_ObjectHideFlags: 0
  m_CorrespondingSourceObject: {fileID: 0}
  m_PrefabInstance: {fileID: 0}
  m_PrefabAsset: {fileID: 0}
  serializedVersion: 6
  m_Component:
  - component: {fileID: 496876}
  m_Layer: 0
  m_Name: Head
  m_TagString: Untagged
  m_Icon: {fileID: 0}
  m_NavMeshLayer: 0
  m_StaticEditorFlags: 0
  m_IsActive: 1
--- !u!4 &496876
Transform:
  m_ObjectHideFlags: 0
  m_CorrespondingSourceObject: {fileID: 0}
  m_PrefabInstance: {fileID: 0}
  m_PrefabAsset: {fileID: 0}
  m_GameObject: {fileID: 150152}
  m_LocalRotation: {x: 0.49920997, y: 0.44163218, z: 0.49395472, w: 0.55835396}
  m_LocalPosition: {x: -0.0000016093254, y: -7.731945, z: 0.00000023841858}
  m_LocalScale: {x: 0.9999999, y: 0.9999999, z: 1}
  m_Children: []
  m_Father: {fileID: 426798}
  m_RootOrder: 0
  m_LocalEulerAnglesHint: {x: 0, y: 0, z: 0}
--- !u!1 &153054
GameObject:
  m_ObjectHideFlags: 0
  m_CorrespondingSourceObject: {fileID: 0}
  m_PrefabInstance: {fileID: 0}
  m_PrefabAsset: {fileID: 0}
  serializedVersion: 6
  m_Component:
  - component: {fileID: 452374}
  m_Layer: 0
  m_Name: Left_Clavicle
  m_TagString: Untagged
  m_Icon: {fileID: 0}
  m_NavMeshLayer: 0
  m_StaticEditorFlags: 0
  m_IsActive: 1
--- !u!4 &452374
Transform:
  m_ObjectHideFlags: 0
  m_CorrespondingSourceObject: {fileID: 0}
  m_PrefabInstance: {fileID: 0}
  m_PrefabAsset: {fileID: 0}
  m_GameObject: {fileID: 153054}
  m_LocalRotation: {x: 0.5238875, y: 0.4199177, z: 0.47819346, w: 0.5661643}
  m_LocalPosition: {x: 1.7815034, y: -2.1385217, z: -9.477733}
  m_LocalScale: {x: 1, y: 1.0000001, z: 1.0000001}
  m_Children:
  - {fileID: 442240}
  m_Father: {fileID: 468276}
  m_RootOrder: 0
  m_LocalEulerAnglesHint: {x: 0, y: 0, z: 0}
--- !u!1 &153286
GameObject:
  m_ObjectHideFlags: 0
  m_CorrespondingSourceObject: {fileID: 0}
  m_PrefabInstance: {fileID: 0}
  m_PrefabAsset: {fileID: 0}
  serializedVersion: 6
  m_Component:
  - component: {fileID: 414738}
  - component: {fileID: 13728566}
  m_Layer: 0
  m_Name: body_1
  m_TagString: Untagged
  m_Icon: {fileID: 0}
  m_NavMeshLayer: 0
  m_StaticEditorFlags: 0
  m_IsActive: 1
--- !u!4 &414738
Transform:
  m_ObjectHideFlags: 0
  m_CorrespondingSourceObject: {fileID: 0}
  m_PrefabInstance: {fileID: 0}
  m_PrefabAsset: {fileID: 0}
  m_GameObject: {fileID: 153286}
  m_LocalRotation: {x: 1.0655235e-14, y: 0, z: 0, w: 1}
  m_LocalPosition: {x: -0.0000048726797, y: 15.415025, z: -0.000000596046}
  m_LocalScale: {x: 1, y: 1, z: 1}
  m_Children: []
  m_Father: {fileID: 400982}
  m_RootOrder: 1
  m_LocalEulerAnglesHint: {x: 0, y: 0, z: 0}
--- !u!137 &13728566
SkinnedMeshRenderer:
  m_ObjectHideFlags: 0
  m_CorrespondingSourceObject: {fileID: 0}
  m_PrefabInstance: {fileID: 0}
  m_PrefabAsset: {fileID: 0}
  m_GameObject: {fileID: 153286}
  m_Enabled: 1
  m_CastShadows: 1
  m_ReceiveShadows: 1
  m_DynamicOccludee: 1
  m_MotionVectors: 1
  m_LightProbeUsage: 1
  m_ReflectionProbeUsage: 1
  m_RayTracingMode: 0
  m_RenderingLayerMask: 1
  m_RendererPriority: 0
  m_Materials:
  - {fileID: 2100000, guid: 62374e974ca43ae4a87c83f871317af4, type: 2}
  m_StaticBatchInfo:
    firstSubMesh: 0
    subMeshCount: 0
  m_StaticBatchRoot: {fileID: 0}
  m_ProbeAnchor: {fileID: 0}
  m_LightProbeVolumeOverride: {fileID: 0}
  m_ScaleInLightmap: 1
  m_ReceiveGI: 1
  m_PreserveUVs: 0
  m_IgnoreNormalsForChartDetection: 0
  m_ImportantGI: 0
  m_StitchLightmapSeams: 1
  m_SelectedEditorRenderState: 3
  m_MinimumChartSize: 4
  m_AutoUVMaxDistance: 0.5
  m_AutoUVMaxAngle: 89
  m_LightmapParameters: {fileID: 0}
  m_SortingLayerID: 0
  m_SortingLayer: 0
  m_SortingOrder: 0
  serializedVersion: 2
  m_Quality: 0
  m_UpdateWhenOffscreen: 0
  m_SkinnedMotionVectors: 1
  m_Mesh: {fileID: 4300010, guid: ca8d8a5559861f1439ed63d88e6446f1, type: 3}
  m_Bones:
  - {fileID: 476952}
  - {fileID: 432484}
  - {fileID: 466780}
  - {fileID: 430988}
  - {fileID: 480562}
  - {fileID: 468276}
  - {fileID: 458256}
  - {fileID: 426798}
  - {fileID: 496876}
  - {fileID: 452374}
  - {fileID: 442240}
  - {fileID: 409798}
  - {fileID: 475984}
  - {fileID: 402742}
  - {fileID: 480226}
  - {fileID: 466784}
  - {fileID: 456202}
  - {fileID: 407786}
  - {fileID: 467762}
  - {fileID: 495992}
  - {fileID: 447924}
  - {fileID: 430346}
  - {fileID: 401168}
  - {fileID: 467532}
  - {fileID: 478006}
  - {fileID: 410504}
  - {fileID: 424770}
  - {fileID: 462680}
  - {fileID: 466046}
  - {fileID: 460970}
  - {fileID: 464870}
  - {fileID: 455446}
  - {fileID: 423908}
  - {fileID: 413010}
  - {fileID: 442520}
  - {fileID: 444836}
  - {fileID: 428864}
  - {fileID: 425544}
  - {fileID: 441480}
  - {fileID: 494764}
  m_BlendShapeWeights: []
  m_RootBone: {fileID: 476952}
  m_AABB:
    m_Center: {x: 17.02835, y: 20.602482, z: -2.0124016}
    m_Extent: {x: 46.367817, y: 87.94931, z: 49.644135}
  m_DirtyAABB: 0
--- !u!1 &153518
GameObject:
  m_ObjectHideFlags: 0
  m_CorrespondingSourceObject: {fileID: 0}
  m_PrefabInstance: {fileID: 0}
  m_PrefabAsset: {fileID: 0}
  serializedVersion: 6
  m_Component:
  - component: {fileID: 409798}
  m_Layer: 0
  m_Name: Left_Elbow
  m_TagString: Untagged
  m_Icon: {fileID: 0}
  m_NavMeshLayer: 0
  m_StaticEditorFlags: 0
  m_IsActive: 1
--- !u!4 &409798
Transform:
  m_ObjectHideFlags: 0
  m_CorrespondingSourceObject: {fileID: 0}
  m_PrefabInstance: {fileID: 0}
  m_PrefabAsset: {fileID: 0}
  m_GameObject: {fileID: 153518}
  m_LocalRotation: {x: -0.24412356, y: 0.10857837, z: -0.072101116, w: 0.9609453}
  m_LocalPosition: {x: 0.000005722046, y: -32.76219, z: 0.0000004172325}
  m_LocalScale: {x: 0.99999976, y: 0.99999976, z: 0.9999998}
  m_Children:
  - {fileID: 475984}
  m_Father: {fileID: 442240}
  m_RootOrder: 0
  m_LocalEulerAnglesHint: {x: 0, y: 0, z: 0}
--- !u!1 &156874
GameObject:
  m_ObjectHideFlags: 0
  m_CorrespondingSourceObject: {fileID: 0}
  m_PrefabInstance: {fileID: 0}
  m_PrefabAsset: {fileID: 0}
  serializedVersion: 6
  m_Component:
  - component: {fileID: 469436}
  m_Layer: 0
  m_Name: group1
  m_TagString: Untagged
  m_Icon: {fileID: 0}
  m_NavMeshLayer: 0
  m_StaticEditorFlags: 0
  m_IsActive: 1
--- !u!4 &469436
Transform:
  m_ObjectHideFlags: 0
  m_CorrespondingSourceObject: {fileID: 0}
  m_PrefabInstance: {fileID: 0}
  m_PrefabAsset: {fileID: 0}
  m_GameObject: {fileID: 156874}
  m_LocalRotation: {x: 0.000000081460335, y: -0, z: 0, w: 1}
  m_LocalPosition: {x: 0, y: 0, z: 0}
  m_LocalScale: {x: 0.01, y: 0.01, z: 0.01}
  m_Children:
  - {fileID: 413772}
  - {fileID: 458424}
  - {fileID: 446730}
  m_Father: {fileID: 400982}
  m_RootOrder: 7
  m_LocalEulerAnglesHint: {x: 0, y: 0, z: 0}
--- !u!1 &156986
GameObject:
  m_ObjectHideFlags: 0
  m_CorrespondingSourceObject: {fileID: 0}
  m_PrefabInstance: {fileID: 0}
  m_PrefabAsset: {fileID: 0}
  serializedVersion: 6
  m_Component:
  - component: {fileID: 425544}
  m_Layer: 0
  m_Name: Right_Foot
  m_TagString: Untagged
  m_Icon: {fileID: 0}
  m_NavMeshLayer: 0
  m_StaticEditorFlags: 0
  m_IsActive: 1
--- !u!4 &425544
Transform:
  m_ObjectHideFlags: 0
  m_CorrespondingSourceObject: {fileID: 0}
  m_PrefabInstance: {fileID: 0}
  m_PrefabAsset: {fileID: 0}
  m_GameObject: {fileID: 156986}
  m_LocalRotation: {x: -0.06698444, y: 0.05606941, z: -0.60010386, w: 0.7951382}
  m_LocalPosition: {x: -0.000007987022, y: -43.425854, z: 0.0000029802322}
  m_LocalScale: {x: 0.9999999, y: 0.9999998, z: 0.9999999}
  m_Children:
  - {fileID: 441480}
  m_Father: {fileID: 428864}
  m_RootOrder: 0
  m_LocalEulerAnglesHint: {x: 0, y: 0, z: 0}
--- !u!1 &159608
GameObject:
  m_ObjectHideFlags: 0
  m_CorrespondingSourceObject: {fileID: 0}
  m_PrefabInstance: {fileID: 0}
  m_PrefabAsset: {fileID: 0}
  serializedVersion: 6
  m_Component:
  - component: {fileID: 442520}
  m_Layer: 0
  m_Name: Left_Toe
  m_TagString: Untagged
  m_Icon: {fileID: 0}
  m_NavMeshLayer: 0
  m_StaticEditorFlags: 0
  m_IsActive: 1
--- !u!4 &442520
Transform:
  m_ObjectHideFlags: 0
  m_CorrespondingSourceObject: {fileID: 0}
  m_PrefabInstance: {fileID: 0}
  m_PrefabAsset: {fileID: 0}
  m_GameObject: {fileID: 159608}
  m_LocalRotation: {x: 0.69789237, y: -0.113780536, z: 0.074443154, w: 0.7031774}
  m_LocalPosition: {x: -0.0000019073486, y: -8.642198, z: -0.0000009536743}
  m_LocalScale: {x: 1.0000001, y: 1.0000001, z: 1}
  m_Children: []
  m_Father: {fileID: 413010}
  m_RootOrder: 0
  m_LocalEulerAnglesHint: {x: 0, y: 0, z: 0}
--- !u!1 &161272
GameObject:
  m_ObjectHideFlags: 0
  m_CorrespondingSourceObject: {fileID: 0}
  m_PrefabInstance: {fileID: 0}
  m_PrefabAsset: {fileID: 0}
  serializedVersion: 6
  m_Component:
  - component: {fileID: 407804}
  - component: {fileID: 13724096}
  m_Layer: 0
  m_Name: dress_arm_2_Skinned
  m_TagString: Untagged
  m_Icon: {fileID: 0}
  m_NavMeshLayer: 0
  m_StaticEditorFlags: 0
  m_IsActive: 0
--- !u!4 &407804
Transform:
  m_ObjectHideFlags: 0
  m_CorrespondingSourceObject: {fileID: 0}
  m_PrefabInstance: {fileID: 0}
  m_PrefabAsset: {fileID: 0}
  m_GameObject: {fileID: 161272}
  m_LocalRotation: {x: 1.0655235e-14, y: 0, z: 0, w: 1}
  m_LocalPosition: {x: -160, y: -1.14e-13, z: -0.0000013113022}
  m_LocalScale: {x: 1, y: 1, z: 1}
  m_Children: []
  m_Father: {fileID: 400982}
  m_RootOrder: 5
  m_LocalEulerAnglesHint: {x: 0, y: 0, z: 0}
--- !u!137 &13724096
SkinnedMeshRenderer:
  m_ObjectHideFlags: 0
  m_CorrespondingSourceObject: {fileID: 0}
  m_PrefabInstance: {fileID: 0}
  m_PrefabAsset: {fileID: 0}
  m_GameObject: {fileID: 161272}
  m_Enabled: 1
  m_CastShadows: 1
  m_ReceiveShadows: 1
  m_DynamicOccludee: 1
  m_MotionVectors: 1
  m_LightProbeUsage: 1
  m_ReflectionProbeUsage: 1
  m_RayTracingMode: 0
  m_RenderingLayerMask: 1
  m_RendererPriority: 0
  m_Materials:
  - {fileID: 2100000, guid: 64e96543dd8b0f7449928e127b2de1aa, type: 2}
  m_StaticBatchInfo:
    firstSubMesh: 0
    subMeshCount: 0
  m_StaticBatchRoot: {fileID: 0}
  m_ProbeAnchor: {fileID: 0}
  m_LightProbeVolumeOverride: {fileID: 0}
  m_ScaleInLightmap: 1
  m_ReceiveGI: 1
  m_PreserveUVs: 0
  m_IgnoreNormalsForChartDetection: 0
  m_ImportantGI: 0
  m_StitchLightmapSeams: 1
  m_SelectedEditorRenderState: 3
  m_MinimumChartSize: 4
  m_AutoUVMaxDistance: 0.5
  m_AutoUVMaxAngle: 89
  m_LightmapParameters: {fileID: 0}
  m_SortingLayerID: 0
  m_SortingLayer: 0
  m_SortingOrder: 0
  serializedVersion: 2
  m_Quality: 0
  m_UpdateWhenOffscreen: 0
  m_SkinnedMotionVectors: 1
  m_Mesh: {fileID: 4300012, guid: ca8d8a5559861f1439ed63d88e6446f1, type: 3}
  m_Bones:
  - {fileID: 476952}
  - {fileID: 432484}
  - {fileID: 466780}
  - {fileID: 430988}
  - {fileID: 480562}
  - {fileID: 468276}
  - {fileID: 458256}
  - {fileID: 426798}
  - {fileID: 496876}
  - {fileID: 452374}
  - {fileID: 442240}
  - {fileID: 409798}
  - {fileID: 475984}
  - {fileID: 402742}
  - {fileID: 480226}
  - {fileID: 466784}
  - {fileID: 456202}
  - {fileID: 407786}
  - {fileID: 467762}
  - {fileID: 495992}
  - {fileID: 447924}
  - {fileID: 430346}
  - {fileID: 401168}
  - {fileID: 467532}
  - {fileID: 478006}
  - {fileID: 410504}
  - {fileID: 424770}
  - {fileID: 462680}
  - {fileID: 466046}
  - {fileID: 460970}
  - {fileID: 464870}
  - {fileID: 455446}
  - {fileID: 423908}
  - {fileID: 413010}
  - {fileID: 442520}
  - {fileID: 444836}
  - {fileID: 428864}
  - {fileID: 425544}
  - {fileID: 441480}
  - {fileID: 494764}
  m_BlendShapeWeights: []
  m_RootBone: {fileID: 476952}
  m_AABB:
    m_Center: {x: 2.7231236, y: 3.8913326, z: -1.5450964}
    m_Extent: {x: 29.09962, y: 40.00387, z: 27.846893}
  m_DirtyAABB: 0
--- !u!1 &162550
GameObject:
  m_ObjectHideFlags: 0
  m_CorrespondingSourceObject: {fileID: 0}
  m_PrefabInstance: {fileID: 0}
  m_PrefabAsset: {fileID: 0}
  serializedVersion: 6
  m_Component:
  - component: {fileID: 486880}
  - component: {fileID: 13763322}
  m_Layer: 0
  m_Name: dress_4
  m_TagString: Untagged
  m_Icon: {fileID: 0}
  m_NavMeshLayer: 0
  m_StaticEditorFlags: 0
  m_IsActive: 0
--- !u!4 &486880
Transform:
  m_ObjectHideFlags: 0
  m_CorrespondingSourceObject: {fileID: 0}
  m_PrefabInstance: {fileID: 0}
  m_PrefabAsset: {fileID: 0}
  m_GameObject: {fileID: 162550}
  m_LocalRotation: {x: -0.0000000017465609, y: 2.132007e-13, z: -3.411281e-12, w: 1}
  m_LocalPosition: {x: 170.64041, y: -9.588171, z: 0.015950859}
  m_LocalScale: {x: 1.0664563, y: 1.0664563, z: 1.0664563}
  m_Children: []
  m_Father: {fileID: 400982}
  m_RootOrder: 4
  m_LocalEulerAnglesHint: {x: 0, y: 0, z: 0}
--- !u!137 &13763322
SkinnedMeshRenderer:
  m_ObjectHideFlags: 0
  m_CorrespondingSourceObject: {fileID: 0}
  m_PrefabInstance: {fileID: 0}
  m_PrefabAsset: {fileID: 0}
  m_GameObject: {fileID: 162550}
  m_Enabled: 1
  m_CastShadows: 1
  m_ReceiveShadows: 1
  m_DynamicOccludee: 1
  m_MotionVectors: 1
  m_LightProbeUsage: 1
  m_ReflectionProbeUsage: 1
  m_RayTracingMode: 0
  m_RenderingLayerMask: 1
  m_RendererPriority: 0
  m_Materials:
  - {fileID: 2100000, guid: e9355d603bdc9a0489293f69f591b8f9, type: 2}
  m_StaticBatchInfo:
    firstSubMesh: 0
    subMeshCount: 0
  m_StaticBatchRoot: {fileID: 0}
  m_ProbeAnchor: {fileID: 0}
  m_LightProbeVolumeOverride: {fileID: 0}
  m_ScaleInLightmap: 1
  m_ReceiveGI: 1
  m_PreserveUVs: 0
  m_IgnoreNormalsForChartDetection: 0
  m_ImportantGI: 0
  m_StitchLightmapSeams: 1
  m_SelectedEditorRenderState: 3
  m_MinimumChartSize: 4
  m_AutoUVMaxDistance: 0.5
  m_AutoUVMaxAngle: 89
  m_LightmapParameters: {fileID: 0}
  m_SortingLayerID: 0
  m_SortingLayer: 0
  m_SortingOrder: 0
  serializedVersion: 2
  m_Quality: 0
  m_UpdateWhenOffscreen: 0
  m_SkinnedMotionVectors: 1
  m_Mesh: {fileID: 4300004, guid: ca8d8a5559861f1439ed63d88e6446f1, type: 3}
  m_Bones:
  - {fileID: 476952}
  - {fileID: 432484}
  - {fileID: 466780}
  - {fileID: 430988}
  - {fileID: 480562}
  - {fileID: 468276}
  - {fileID: 458256}
  - {fileID: 426798}
  - {fileID: 496876}
  - {fileID: 452374}
  - {fileID: 442240}
  - {fileID: 409798}
  - {fileID: 475984}
  - {fileID: 402742}
  - {fileID: 480226}
  - {fileID: 466784}
  - {fileID: 456202}
  - {fileID: 407786}
  - {fileID: 467762}
  - {fileID: 495992}
  - {fileID: 447924}
  - {fileID: 430346}
  - {fileID: 401168}
  - {fileID: 467532}
  - {fileID: 478006}
  - {fileID: 410504}
  - {fileID: 424770}
  - {fileID: 462680}
  - {fileID: 466046}
  - {fileID: 460970}
  - {fileID: 464870}
  - {fileID: 455446}
  - {fileID: 423908}
  - {fileID: 413010}
  - {fileID: 442520}
  - {fileID: 444836}
  - {fileID: 428864}
  - {fileID: 425544}
  - {fileID: 441480}
  - {fileID: 494764}
  m_BlendShapeWeights: []
  m_RootBone: {fileID: 476952}
  m_AABB:
    m_Center: {x: 5.1629944, y: 15.588507, z: 1.7046719}
    m_Extent: {x: 28.948147, y: 29.805029, z: 23.836538}
  m_DirtyAABB: 0
--- !u!1 &165846
GameObject:
  m_ObjectHideFlags: 0
  m_CorrespondingSourceObject: {fileID: 0}
  m_PrefabInstance: {fileID: 0}
  m_PrefabAsset: {fileID: 0}
  serializedVersion: 6
  m_Component:
  - component: {fileID: 423302}
  - component: {fileID: 13798896}
  m_Layer: 0
  m_Name: hat_shoulders_2_Skinned
  m_TagString: Untagged
  m_Icon: {fileID: 0}
  m_NavMeshLayer: 0
  m_StaticEditorFlags: 0
  m_IsActive: 0
--- !u!4 &423302
Transform:
  m_ObjectHideFlags: 0
  m_CorrespondingSourceObject: {fileID: 0}
  m_PrefabInstance: {fileID: 0}
  m_PrefabAsset: {fileID: 0}
  m_GameObject: {fileID: 165846}
  m_LocalRotation: {x: 1.420698e-14, y: 2.6179939e-17, z: -2.1816616e-16, w: 1}
  m_LocalPosition: {x: -159.99998, y: -0.000006437301, z: -0.00000025331974}
  m_LocalScale: {x: 0.9999999, y: 1.0000001, z: 1.0000001}
  m_Children: []
  m_Father: {fileID: 400982}
  m_RootOrder: 9
  m_LocalEulerAnglesHint: {x: 0, y: 0, z: 0}
--- !u!137 &13798896
SkinnedMeshRenderer:
  m_ObjectHideFlags: 0
  m_CorrespondingSourceObject: {fileID: 0}
  m_PrefabInstance: {fileID: 0}
  m_PrefabAsset: {fileID: 0}
  m_GameObject: {fileID: 165846}
  m_Enabled: 1
  m_CastShadows: 1
  m_ReceiveShadows: 1
  m_DynamicOccludee: 1
  m_MotionVectors: 1
  m_LightProbeUsage: 1
  m_ReflectionProbeUsage: 1
  m_RayTracingMode: 0
  m_RenderingLayerMask: 1
  m_RendererPriority: 0
  m_Materials:
  - {fileID: 2100000, guid: 6984437d5a89e7a4383334220bff1700, type: 2}
  m_StaticBatchInfo:
    firstSubMesh: 0
    subMeshCount: 0
  m_StaticBatchRoot: {fileID: 0}
  m_ProbeAnchor: {fileID: 0}
  m_LightProbeVolumeOverride: {fileID: 0}
  m_ScaleInLightmap: 1
  m_ReceiveGI: 1
  m_PreserveUVs: 0
  m_IgnoreNormalsForChartDetection: 0
  m_ImportantGI: 0
  m_StitchLightmapSeams: 1
  m_SelectedEditorRenderState: 3
  m_MinimumChartSize: 4
  m_AutoUVMaxDistance: 0.5
  m_AutoUVMaxAngle: 89
  m_LightmapParameters: {fileID: 0}
  m_SortingLayerID: 0
  m_SortingLayer: 0
  m_SortingOrder: 0
  serializedVersion: 2
  m_Quality: 0
  m_UpdateWhenOffscreen: 0
  m_SkinnedMotionVectors: 1
  m_Mesh: {fileID: 4300002, guid: ca8d8a5559861f1439ed63d88e6446f1, type: 3}
  m_Bones:
  - {fileID: 476952}
  - {fileID: 432484}
  - {fileID: 466780}
  - {fileID: 430988}
  - {fileID: 480562}
  - {fileID: 468276}
  - {fileID: 458256}
  - {fileID: 426798}
  - {fileID: 496876}
  - {fileID: 452374}
  - {fileID: 442240}
  - {fileID: 409798}
  - {fileID: 475984}
  - {fileID: 402742}
  - {fileID: 480226}
  - {fileID: 466784}
  - {fileID: 456202}
  - {fileID: 407786}
  - {fileID: 467762}
  - {fileID: 495992}
  - {fileID: 447924}
  - {fileID: 430346}
  - {fileID: 401168}
  - {fileID: 467532}
  - {fileID: 478006}
  - {fileID: 410504}
  - {fileID: 424770}
  - {fileID: 462680}
  - {fileID: 466046}
  - {fileID: 460970}
  - {fileID: 464870}
  - {fileID: 455446}
  - {fileID: 423908}
  - {fileID: 413010}
  - {fileID: 442520}
  - {fileID: 444836}
  - {fileID: 428864}
  - {fileID: 425544}
  - {fileID: 441480}
  - {fileID: 494764}
  m_BlendShapeWeights: []
  m_RootBone: {fileID: 476952}
  m_AABB:
    m_Center: {x: -5.7060695, y: -64.63093, z: -0.61307526}
    m_Extent: {x: 17.648123, y: 29.824257, z: 20.524881}
  m_DirtyAABB: 0
--- !u!1 &167314
GameObject:
  m_ObjectHideFlags: 0
  m_CorrespondingSourceObject: {fileID: 0}
  m_PrefabInstance: {fileID: 0}
  m_PrefabAsset: {fileID: 0}
  serializedVersion: 6
  m_Component:
  - component: {fileID: 413188}
  - component: {fileID: 13776152}
  m_Layer: 0
  m_Name: fase_1
  m_TagString: Untagged
  m_Icon: {fileID: 0}
  m_NavMeshLayer: 0
  m_StaticEditorFlags: 0
  m_IsActive: 1
--- !u!4 &413188
Transform:
  m_ObjectHideFlags: 0
  m_CorrespondingSourceObject: {fileID: 0}
  m_PrefabInstance: {fileID: 0}
  m_PrefabAsset: {fileID: 0}
  m_GameObject: {fileID: 167314}
  m_LocalRotation: {x: 7.10349e-15, y: 0, z: 0, w: 1}
  m_LocalPosition: {x: -4.597e-12, y: 15.415022, z: 3.7971e-11}
  m_LocalScale: {x: 1, y: 1, z: 1}
  m_Children: []
  m_Father: {fileID: 400982}
  m_RootOrder: 6
  m_LocalEulerAnglesHint: {x: 0, y: 0, z: 0}
--- !u!137 &13776152
SkinnedMeshRenderer:
  m_ObjectHideFlags: 0
  m_CorrespondingSourceObject: {fileID: 0}
  m_PrefabInstance: {fileID: 0}
  m_PrefabAsset: {fileID: 0}
  m_GameObject: {fileID: 167314}
  m_Enabled: 1
  m_CastShadows: 1
  m_ReceiveShadows: 1
  m_DynamicOccludee: 1
  m_MotionVectors: 1
  m_LightProbeUsage: 1
  m_ReflectionProbeUsage: 1
  m_RayTracingMode: 0
  m_RenderingLayerMask: 1
  m_RendererPriority: 0
  m_Materials:
  - {fileID: 2100000, guid: 76ceafaa1ba9e1641b71c25d07f5a0f6, type: 2}
  m_StaticBatchInfo:
    firstSubMesh: 0
    subMeshCount: 0
  m_StaticBatchRoot: {fileID: 0}
  m_ProbeAnchor: {fileID: 0}
  m_LightProbeVolumeOverride: {fileID: 0}
  m_ScaleInLightmap: 1
  m_ReceiveGI: 1
  m_PreserveUVs: 0
  m_IgnoreNormalsForChartDetection: 0
  m_ImportantGI: 0
  m_StitchLightmapSeams: 1
  m_SelectedEditorRenderState: 3
  m_MinimumChartSize: 4
  m_AutoUVMaxDistance: 0.5
  m_AutoUVMaxAngle: 89
  m_LightmapParameters: {fileID: 0}
  m_SortingLayerID: 0
  m_SortingLayer: 0
  m_SortingOrder: 0
  serializedVersion: 2
  m_Quality: 0
  m_UpdateWhenOffscreen: 0
  m_SkinnedMotionVectors: 1
  m_Mesh: {fileID: 4300008, guid: ca8d8a5559861f1439ed63d88e6446f1, type: 3}
  m_Bones:
  - {fileID: 476952}
  - {fileID: 432484}
  - {fileID: 466780}
  - {fileID: 430988}
  - {fileID: 480562}
  - {fileID: 468276}
  - {fileID: 458256}
  - {fileID: 426798}
  - {fileID: 496876}
  - {fileID: 452374}
  - {fileID: 442240}
  - {fileID: 409798}
  - {fileID: 475984}
  - {fileID: 402742}
  - {fileID: 480226}
  - {fileID: 466784}
  - {fileID: 456202}
  - {fileID: 407786}
  - {fileID: 467762}
  - {fileID: 495992}
  - {fileID: 447924}
  - {fileID: 430346}
  - {fileID: 401168}
  - {fileID: 467532}
  - {fileID: 478006}
  - {fileID: 410504}
  - {fileID: 424770}
  - {fileID: 462680}
  - {fileID: 466046}
  - {fileID: 460970}
  - {fileID: 464870}
  - {fileID: 455446}
  - {fileID: 423908}
  - {fileID: 413010}
  - {fileID: 442520}
  - {fileID: 444836}
  - {fileID: 428864}
  - {fileID: 425544}
  - {fileID: 441480}
  - {fileID: 494764}
  m_BlendShapeWeights: []
  m_RootBone: {fileID: 476952}
  m_AABB:
    m_Center: {x: 0.50652885, y: -68.03463, z: -3.2023296}
    m_Extent: {x: 7.6153173, y: 10.694206, z: 8.326064}
  m_DirtyAABB: 0
--- !u!1 &168810
GameObject:
  m_ObjectHideFlags: 0
  m_CorrespondingSourceObject: {fileID: 0}
  m_PrefabInstance: {fileID: 0}
  m_PrefabAsset: {fileID: 0}
  serializedVersion: 6
  m_Component:
  - component: {fileID: 462680}
  m_Layer: 0
  m_Name: Right_Thumb_1
  m_TagString: Untagged
  m_Icon: {fileID: 0}
  m_NavMeshLayer: 0
  m_StaticEditorFlags: 0
  m_IsActive: 1
--- !u!4 &462680
Transform:
  m_ObjectHideFlags: 0
  m_CorrespondingSourceObject: {fileID: 0}
  m_PrefabInstance: {fileID: 0}
  m_PrefabAsset: {fileID: 0}
  m_GameObject: {fileID: 168810}
  m_LocalRotation: {x: 0.09488099, y: -0.10782668, z: 0.09690393, w: 0.984876}
  m_LocalPosition: {x: 0.00018875301, y: 3.0568845, z: 0.000018835068}
  m_LocalScale: {x: 1, y: 1.0000001, z: 1}
  m_Children:
  - {fileID: 466046}
  m_Father: {fileID: 424770}
  m_RootOrder: 0
  m_LocalEulerAnglesHint: {x: 0, y: 0, z: 0}
--- !u!1 &168916
GameObject:
  m_ObjectHideFlags: 0
  m_CorrespondingSourceObject: {fileID: 0}
  m_PrefabInstance: {fileID: 0}
  m_PrefabAsset: {fileID: 0}
  serializedVersion: 6
  m_Component:
  - component: {fileID: 423908}
  m_Layer: 0
  m_Name: Left_Foot
  m_TagString: Untagged
  m_Icon: {fileID: 0}
  m_NavMeshLayer: 0
  m_StaticEditorFlags: 0
  m_IsActive: 1
--- !u!4 &423908
Transform:
  m_ObjectHideFlags: 0
  m_CorrespondingSourceObject: {fileID: 0}
  m_PrefabInstance: {fileID: 0}
  m_PrefabAsset: {fileID: 0}
  m_GameObject: {fileID: 168916}
  m_LocalRotation: {x: 0.10532852, y: -0.07532712, z: -0.5383897, w: 0.8326874}
  m_LocalPosition: {x: -0.00000500679, y: -43.42587, z: -0.0000012516975}
  m_LocalScale: {x: 0.9999998, y: 0.9999998, z: 0.99999994}
  m_Children:
  - {fileID: 413010}
  m_Father: {fileID: 455446}
  m_RootOrder: 0
  m_LocalEulerAnglesHint: {x: 0, y: 0, z: 0}
--- !u!1 &177396
GameObject:
  m_ObjectHideFlags: 0
  m_CorrespondingSourceObject: {fileID: 0}
  m_PrefabInstance: {fileID: 0}
  m_PrefabAsset: {fileID: 0}
  serializedVersion: 6
  m_Component:
  - component: {fileID: 468276}
  m_Layer: 0
  m_Name: Chest
  m_TagString: Untagged
  m_Icon: {fileID: 0}
  m_NavMeshLayer: 0
  m_StaticEditorFlags: 0
  m_IsActive: 1
--- !u!4 &468276
Transform:
  m_ObjectHideFlags: 0
  m_CorrespondingSourceObject: {fileID: 0}
  m_PrefabInstance: {fileID: 0}
  m_PrefabAsset: {fileID: 0}
  m_GameObject: {fileID: 177396}
  m_LocalRotation: {x: 0.15271822, y: 0.9875302, z: -0.029125027, w: -0.024759257}
  m_LocalPosition: {x: -0.0000040382147, y: -9.402493, z: 0.00000017827188}
  m_LocalScale: {x: 1.0000002, y: 1.0000017, z: 1}
  m_Children:
  - {fileID: 452374}
  - {fileID: 458256}
  - {fileID: 495992}
  m_Father: {fileID: 480562}
  m_RootOrder: 0
  m_LocalEulerAnglesHint: {x: 0, y: 0, z: 0}
--- !u!1 &178140
GameObject:
  m_ObjectHideFlags: 0
  m_CorrespondingSourceObject: {fileID: 0}
  m_PrefabInstance: {fileID: 0}
  m_PrefabAsset: {fileID: 0}
  serializedVersion: 6
  m_Component:
  - component: {fileID: 455446}
  m_Layer: 0
  m_Name: Left_Knee
  m_TagString: Untagged
  m_Icon: {fileID: 0}
  m_NavMeshLayer: 0
  m_StaticEditorFlags: 0
  m_IsActive: 1
--- !u!4 &455446
Transform:
  m_ObjectHideFlags: 0
  m_CorrespondingSourceObject: {fileID: 0}
  m_PrefabInstance: {fileID: 0}
  m_PrefabAsset: {fileID: 0}
  m_GameObject: {fileID: 178140}
  m_LocalRotation: {x: -0.013857682, y: 0.0023701019, z: 0.07404264, w: 0.99715596}
  m_LocalPosition: {x: -0.000010728836, y: -42.966434, z: -0.0000009536743}
  m_LocalScale: {x: 0.99999976, y: 1.0000001, z: 1}
  m_Children:
  - {fileID: 423908}
  m_Father: {fileID: 464870}
  m_RootOrder: 0
  m_LocalEulerAnglesHint: {x: 0, y: 0, z: 0}
--- !u!1 &182684
GameObject:
  m_ObjectHideFlags: 0
  m_CorrespondingSourceObject: {fileID: 0}
  m_PrefabInstance: {fileID: 0}
  m_PrefabAsset: {fileID: 0}
  serializedVersion: 6
  m_Component:
  - component: {fileID: 480226}
  m_Layer: 0
  m_Name: Left_Index_1
  m_TagString: Untagged
  m_Icon: {fileID: 0}
  m_NavMeshLayer: 0
  m_StaticEditorFlags: 0
  m_IsActive: 1
--- !u!4 &480226
Transform:
  m_ObjectHideFlags: 0
  m_CorrespondingSourceObject: {fileID: 0}
  m_PrefabInstance: {fileID: 0}
  m_PrefabAsset: {fileID: 0}
  m_GameObject: {fileID: 182684}
  m_LocalRotation: {x: -0.038184553, y: 0.051225137, z: 0.03455552, w: 0.99735844}
  m_LocalPosition: {x: -0.000008523464, y: -3.9120133, z: 0.0000009536743}
  m_LocalScale: {x: 1, y: 1, z: 0.99999994}
  m_Children:
  - {fileID: 466784}
  m_Father: {fileID: 402742}
  m_RootOrder: 0
  m_LocalEulerAnglesHint: {x: 0, y: 0, z: 0}
--- !u!1 &187748
GameObject:
  m_ObjectHideFlags: 0
  m_CorrespondingSourceObject: {fileID: 0}
  m_PrefabInstance: {fileID: 0}
  m_PrefabAsset: {fileID: 0}
  serializedVersion: 6
  m_Component:
  - component: {fileID: 478006}
  m_Layer: 0
  m_Name: Right_Index_1
  m_TagString: Untagged
  m_Icon: {fileID: 0}
  m_NavMeshLayer: 0
  m_StaticEditorFlags: 0
  m_IsActive: 1
--- !u!4 &478006
Transform:
  m_ObjectHideFlags: 0
  m_CorrespondingSourceObject: {fileID: 0}
  m_PrefabInstance: {fileID: 0}
  m_PrefabAsset: {fileID: 0}
  m_GameObject: {fileID: 187748}
  m_LocalRotation: {x: -0.038188297, y: 0.05122512, z: 0.034555975, w: 0.99735826}
  m_LocalPosition: {x: 0.00038051605, y: 3.9114876, z: -0.000013113022}
  m_LocalScale: {x: 1.0000001, y: 1.0000002, z: 1.0000001}
  m_Children:
  - {fileID: 410504}
  m_Father: {fileID: 467532}
  m_RootOrder: 0
  m_LocalEulerAnglesHint: {x: 0, y: 0, z: 0}
--- !u!1 &187858
GameObject:
  m_ObjectHideFlags: 0
  m_CorrespondingSourceObject: {fileID: 0}
  m_PrefabInstance: {fileID: 0}
  m_PrefabAsset: {fileID: 0}
  serializedVersion: 6
  m_Component:
  - component: {fileID: 466046}
  m_Layer: 0
  m_Name: Right_Thumb_End
  m_TagString: Untagged
  m_Icon: {fileID: 0}
  m_NavMeshLayer: 0
  m_StaticEditorFlags: 0
  m_IsActive: 1
--- !u!4 &466046
Transform:
  m_ObjectHideFlags: 0
  m_CorrespondingSourceObject: {fileID: 0}
  m_PrefabInstance: {fileID: 0}
  m_PrefabAsset: {fileID: 0}
  m_GameObject: {fileID: 187858}
  m_LocalRotation: {x: 0.20711091, y: -0.21815264, z: -0.12917113, w: 0.94489646}
  m_LocalPosition: {x: 0.00027647614, y: 3.6574662, z: 0.000037431717}
  m_LocalScale: {x: 1, y: 0.99999964, z: 0.9999999}
  m_Children: []
  m_Father: {fileID: 462680}
  m_RootOrder: 0
  m_LocalEulerAnglesHint: {x: 0, y: 0, z: 0}
--- !u!1 &189194
GameObject:
  m_ObjectHideFlags: 0
  m_CorrespondingSourceObject: {fileID: 0}
  m_PrefabInstance: {fileID: 0}
  m_PrefabAsset: {fileID: 0}
  serializedVersion: 6
  m_Component:
  - component: {fileID: 407786}
  m_Layer: 0
  m_Name: Left_Thumb_1
  m_TagString: Untagged
  m_Icon: {fileID: 0}
  m_NavMeshLayer: 0
  m_StaticEditorFlags: 0
  m_IsActive: 1
--- !u!4 &407786
Transform:
  m_ObjectHideFlags: 0
  m_CorrespondingSourceObject: {fileID: 0}
  m_PrefabInstance: {fileID: 0}
  m_PrefabAsset: {fileID: 0}
  m_GameObject: {fileID: 189194}
  m_LocalRotation: {x: 0.094881944, y: -0.107826404, z: 0.096903965, w: 0.98487586}
  m_LocalPosition: {x: 0.0000023841858, y: -3.057046, z: -0.00000333786}
  m_LocalScale: {x: 0.9999999, y: 0.9999999, z: 1}
  m_Children:
  - {fileID: 467762}
  m_Father: {fileID: 456202}
  m_RootOrder: 0
  m_LocalEulerAnglesHint: {x: 0, y: 0, z: 0}
--- !u!1 &189302
GameObject:
  m_ObjectHideFlags: 0
  m_CorrespondingSourceObject: {fileID: 0}
  m_PrefabInstance: {fileID: 0}
  m_PrefabAsset: {fileID: 0}
  serializedVersion: 6
  m_Component:
  - component: {fileID: 401168}
  m_Layer: 0
  m_Name: Right_Hand
  m_TagString: Untagged
  m_Icon: {fileID: 0}
  m_NavMeshLayer: 0
  m_StaticEditorFlags: 0
  m_IsActive: 1
--- !u!4 &401168
Transform:
  m_ObjectHideFlags: 0
  m_CorrespondingSourceObject: {fileID: 0}
  m_PrefabInstance: {fileID: 0}
  m_PrefabAsset: {fileID: 0}
  m_GameObject: {fileID: 189302}
  m_LocalRotation: {x: -0.36958557, y: -0.0065070563, z: -0.124058925, w: 0.9208548}
  m_LocalPosition: {x: -0.00048351288, y: 27.33812, z: 0.000012397766}
  m_LocalScale: {x: 1, y: 1, z: 0.99999994}
  m_Children:
  - {fileID: 467532}
  - {fileID: 424770}
  m_Father: {fileID: 430346}
  m_RootOrder: 0
  m_LocalEulerAnglesHint: {x: 0, y: 0, z: 0}
--- !u!1 &190276
GameObject:
  m_ObjectHideFlags: 0
  m_CorrespondingSourceObject: {fileID: 0}
  m_PrefabInstance: {fileID: 0}
  m_PrefabAsset: {fileID: 0}
  serializedVersion: 6
  m_Component:
  - component: {fileID: 475984}
  m_Layer: 0
  m_Name: Left_Hand
  m_TagString: Untagged
  m_Icon: {fileID: 0}
  m_NavMeshLayer: 0
  m_StaticEditorFlags: 0
  m_IsActive: 1
--- !u!4 &475984
Transform:
  m_ObjectHideFlags: 0
  m_CorrespondingSourceObject: {fileID: 0}
  m_PrefabInstance: {fileID: 0}
  m_PrefabAsset: {fileID: 0}
  m_GameObject: {fileID: 190276}
  m_LocalRotation: {x: -0.0070622168, y: 0.0046157064, z: 0.039679576, w: 0.99917686}
  m_LocalPosition: {x: -0.000008374453, y: -27.337769, z: -0.00000011920929}
  m_LocalScale: {x: 1.0000001, y: 1.0000001, z: 0.99999994}
  m_Children:
  - {fileID: 402742}
  - {fileID: 456202}
  m_Father: {fileID: 409798}
  m_RootOrder: 0
  m_LocalEulerAnglesHint: {x: 0, y: 0, z: 0}
--- !u!1 &191490
GameObject:
  m_ObjectHideFlags: 0
  m_CorrespondingSourceObject: {fileID: 0}
  m_PrefabInstance: {fileID: 0}
  m_PrefabAsset: {fileID: 0}
  serializedVersion: 6
  m_Component:
  - component: {fileID: 494764}
  m_Layer: 0
  m_Name: Right_Toe
  m_TagString: Untagged
  m_Icon: {fileID: 0}
  m_NavMeshLayer: 0
  m_StaticEditorFlags: 0
  m_IsActive: 1
--- !u!4 &494764
Transform:
  m_ObjectHideFlags: 0
  m_CorrespondingSourceObject: {fileID: 0}
  m_PrefabInstance: {fileID: 0}
  m_PrefabAsset: {fileID: 0}
  m_GameObject: {fileID: 191490}
  m_LocalRotation: {x: 0.13153647, y: 0.6947583, z: 0.701803, w: -0.0864968}
  m_LocalPosition: {x: -0.0000013113022, y: -8.645232, z: -0.0000030994415}
  m_LocalScale: {x: 1, y: 0.99999994, z: 1.0000004}
  m_Children: []
  m_Father: {fileID: 441480}
  m_RootOrder: 0
  m_LocalEulerAnglesHint: {x: 0, y: 0, z: 0}
--- !u!1 &199150
GameObject:
  m_ObjectHideFlags: 0
  m_CorrespondingSourceObject: {fileID: 0}
  m_PrefabInstance: {fileID: 0}
  m_PrefabAsset: {fileID: 0}
  serializedVersion: 6
  m_Component:
  - component: {fileID: 467762}
  m_Layer: 0
  m_Name: Left_Thumb_End
  m_TagString: Untagged
  m_Icon: {fileID: 0}
  m_NavMeshLayer: 0
  m_StaticEditorFlags: 0
  m_IsActive: 1
--- !u!4 &467762
Transform:
  m_ObjectHideFlags: 0
  m_CorrespondingSourceObject: {fileID: 0}
  m_PrefabInstance: {fileID: 0}
  m_PrefabAsset: {fileID: 0}
  m_GameObject: {fileID: 199150}
  m_LocalRotation: {x: 0.20709802, y: -0.21815118, z: -0.12917395, w: 0.94489926}
  m_LocalPosition: {x: 0.0000038146973, y: -3.6578147, z: -0.0000038146973}
  m_LocalScale: {x: 1, y: 1.0000001, z: 0.99999994}
  m_Children: []
  m_Father: {fileID: 407786}
  m_RootOrder: 0
  m_LocalEulerAnglesHint: {x: 0, y: 0, z: 0}
--- !u!1 &199954
GameObject:
  m_ObjectHideFlags: 0
  m_CorrespondingSourceObject: {fileID: 0}
  m_PrefabInstance: {fileID: 0}
  m_PrefabAsset: {fileID: 0}
  serializedVersion: 6
  m_Component:
  - component: {fileID: 430988}
  m_Layer: 0
  m_Name: Spine_2
  m_TagString: Untagged
  m_Icon: {fileID: 0}
  m_NavMeshLayer: 0
  m_StaticEditorFlags: 0
  m_IsActive: 1
--- !u!4 &430988
Transform:
  m_ObjectHideFlags: 0
  m_CorrespondingSourceObject: {fileID: 0}
  m_PrefabInstance: {fileID: 0}
  m_PrefabAsset: {fileID: 0}
  m_GameObject: {fileID: 199954}
  m_LocalRotation: {x: -0.0050853114, y: -0.020225903, z: 0.001638498, w: 0.9997812}
  m_LocalPosition: {x: 0.0000021010637, y: -10.744686, z: -0.00000031292439}
  m_LocalScale: {x: 0.9999998, y: 1.0000001, z: 1.0000002}
  m_Children:
  - {fileID: 480562}
  m_Father: {fileID: 466780}
  m_RootOrder: 0
  m_LocalEulerAnglesHint: {x: 0, y: 0, z: 0}
